-56 928
992
-24 64 -48 -40 -56 720
-32 -64 -64 -72 -48 -72 -56 528
40 -56 -64 -96 704
-48 -72 -56 792
992
-24 -72 8 -88 -64 696
-88 -56 -88 -24 -80 -40 568
-72 8 -88 -24 -72 -72 -48 -24 -72 -64 368
-40 -40 -88 -56 24 -72 -96 -64 448
72 -64 -88 744
-32 -24 920
-88 -40 -24 -96 712
-64 96 -64 744
